individual2
…
Question 3

dangerous <- fatal%>%
  drop_na(MAKE) %>%
  group_by(STATE, MAKE) %>%
  summarize(Deaths = sum(PER_NO)) %>%
  group_by(STATE) %>%
  top_n(1, Deaths)

## `summarise()` regrouping output by 'STATE' (override with `.groups` argument)

dangerous

## # A tibble: 51 x 3
## # Groups:   STATE [51]
##    STATE  MAKE Deaths
##    <int> <int>  <int>
##  1     1    12    188
##  2     2    20     12
##  3     4    20    137
##  4     5    20    113
##  5     6    49    471
##  6     8    20     96
##  7     9    37     34
##  8    10    12     14
##  9    11    42      8
## 10    12    12    312
## #  with 41 more rows
…
Question 8

Winter

Winter <- fatal %>%
  filter(MONTH == 12 | MONTH <= 2)
Winter %>%
  select(PER_NO, ST_CASE, STATE) %>%
  group_by(STATE) %>%
  summarise(Deaths=sum(PER_NO))

## `summarise()` ungrouping output (override with `.groups` argument)

## # A tibble: 51 x 2
##    STATE Deaths
##    <int>  <int>
##  1     1    269
##  2     2     30
##  3     4    305
##  4     5    142
##  5     6   1028
##  6     8    157
##  7     9     76
##  8    10     31
##  9    11     13
## 10    12    965
## #  with 41 more rows

Summer

Summer <- fatal %>%
  filter(MONTH >= 6 & MONTH <= 8)
Summer %>%
  select(PER_NO, ST_CASE, STATE) %>%
  group_by(STATE) %>%
  summarise(Deaths=sum(PER_NO))

## `summarise()` ungrouping output (override with `.groups` argument)

## # A tibble: 51 x 2
##    STATE Deaths
##    <int>  <int>
##  1     1    290
##  2     2     29
##  3     4    295
##  4     5    185
##  5     6   1175
##  6     8    288
##  7     9     85
##  8    10     35
##  9    11     12
## 10    12    843
## #  with 41 more rows
…
